{
    "configurations": [
        {
            "name": "Linux",
            "includePath": [
                "${workspaceFolder}/$OS161_PATH_REL/kern/compile/$ASST_NUM/includelinks/*",
                "${workspaceFolder}/$OS161_PATH_REL/kern/include/*",
                "${workspaceFolder}/$OS161_PATH_REL/kern/**"
            ],
            "defines": [
                "UW"
            ],
            "compilerPath": "/usr/bin/mips-linux-gnu-gcc",
            "cStandard": "c17",
            "cppStandard": "gnu++14",
            "intelliSenseMode": "linux-gcc-arm64"
        }
    ],
    "version": 4
}