{
    "version": "0.2.0",
    "configurations": [
        {
            "name": "(gdb) Launch",
            "type": "cppdbg",
            "request": "launch",
            "program": "this parameter is mandatory but also incompetent",
            "targetArchitecture": "mips",
            "cwd": "/",
            "sourceFileMap": {
                "/os161-1.99": "${workspaceFolder}/$OS161_PATH_REL",
                "../../arch": "${workspaceFolder}/$OS161_PATH_REL/kern/arch"
            },
            "stopAtConnect": true,
            "pipeTransport": {
                "debuggerPath": "SYS161_CWD=$(pgrep -n sys161 -w) && cd /proc/$SYS161_CWD/cwd || cd /os-compile; /os161/tools/bin/cs350-gdb",
                "pipeProgram": "docker-compose",
                "pipeArgs": [
                    "-f",
                    "${workspaceFolder}/docker-compose.yml",
                    "exec",
                    "-T",
                    "os161-runner",
                    "bash",
                    "-c"
                ],
                "pipeCwd": "${workspaceFolder}"
            },
            "MIMode": "gdb",
            "customLaunchSetupCommands": [
                {
                    "text": "-file-exec-and-symbols /os-compile/kernel-$KERNEL_CONF"
                },
                {
                    "text": "-environment-directory /os161-1.99/kern/compile"
                },
                {
                    "text": "-target-select remote unix:.sockets/gdb"
                }
            ],
            "setupCommands": [
                {
                    "description": "Enable pretty-printing for gdb",
                    "text": "-enable-pretty-printing",
                    "ignoreFailures": true
                }
            ]
        }
    ]
}
